---
http_interactions:
- request:
    method: get
    uri: http://localhost:3000/api/v3/people.json?api_key=iJHyFkMUBSfjUovt29&page=2&per_page=3
    body:
      encoding: US-ASCII
      string: ''
    headers:
      Accept:
      - application/json
      Accept-Encoding:
      - gzip;q=1.0,deflate;q=0.6,identity;q=0.3
      User-Agent:
      - Ruby
  response:
    status:
      code: 200
      message: OK
    headers:
      Date:
      - Mon, 19 May 2014 16:28:06 GMT
      Status:
      - 200 OK
      Connection:
      - close
      Content-Type:
      - application/json; charset=utf-8
      X-Runtime:
      - '1422'
      Etag:
      - ! '"f41d1b88035b8c615855d486d1e4a13c"'
      Cache-Control:
      - private, max-age=0, must-revalidate
      Content-Length:
      - '3378'
      Set-Cookie:
      - is_legacy_user=; domain=pipelinedeals.com; path=/; expires=Thu, 01-Jan-1970
        00:00:00 GMT
    body:
      encoding: US-ASCII
      string: ! '{"entries":[{"company_id":4,"created_at":"2014/05/19 08:55:03 -0400","email":null,"email2":null,"facebook_url":null,"fax":null,"first_name":"Tamia","home_address_1":null,"home_address_2":null,"home_city":null,"home_country":null,"home_email":null,"home_phone":null,"home_postal_code":null,"home_state":null,"id":4,"instant_message":null,"last_name":"Skiles","linked_in_url":null,"mobile":null,"phone":null,"position":null,"twitter":null,"type":"Contact","updated_at":"2014/05/19
        11:41:43 -0400","user_id":2,"viewed_at":null,"website":null,"work_address_1":null,"work_address_2":null,"work_city":null,"work_country":null,"work_postal_code":null,"work_state":null,"company_name":"Rosenbaum
        Inc","full_name":"Tamia Skiles","predefined_contacts_tag_ids":[],"deal_ids":[],"image_thumb_url":"/images/thumb/missing.png","image_mobile_url":"/images/mobile/missing.png","predefined_contacts_tags":[],"deals":[],"lead_source":{"id":2,"name":"Cold
        Call"},"lead_status":{"hex_color":"C73408","id":2,"name":"Hot"},"company":{"id":4,"name":"Rosenbaum
        Inc"},"user":{"id":2,"first_name":"Maggie","last_name":"Zemlak"},"custom_fields":{}},{"company_id":5,"created_at":"2014/05/19
        08:55:03 -0400","email":null,"email2":null,"facebook_url":null,"fax":null,"first_name":"Katharina","home_address_1":null,"home_address_2":null,"home_city":null,"home_country":null,"home_email":null,"home_phone":null,"home_postal_code":null,"home_state":null,"id":5,"instant_message":null,"last_name":"Zemlak","linked_in_url":null,"mobile":null,"phone":null,"position":null,"twitter":null,"type":"Contact","updated_at":"2014/05/19
        08:55:06 -0400","user_id":2,"viewed_at":null,"website":null,"work_address_1":null,"work_address_2":null,"work_city":null,"work_country":null,"work_postal_code":null,"work_state":null,"company_name":"Hermann-Schowalter","full_name":"Katharina
        Zemlak","predefined_contacts_tag_ids":[],"deal_ids":[],"image_thumb_url":"/images/thumb/missing.png","image_mobile_url":"/images/mobile/missing.png","predefined_contacts_tags":[],"deals":[],"lead_source":{"id":2,"name":"Cold
        Call"},"company":{"id":5,"name":"Hermann-Schowalter"},"user":{"id":2,"first_name":"Maggie","last_name":"Zemlak"},"lead_status":null,"custom_fields":{}},{"company_id":6,"created_at":"2014/05/19
        08:55:06 -0400","email":null,"email2":null,"facebook_url":null,"fax":null,"first_name":"Pete","home_address_1":null,"home_address_2":null,"home_city":null,"home_country":null,"home_email":null,"home_phone":null,"home_postal_code":null,"home_state":null,"id":6,"instant_message":null,"last_name":"Upton","linked_in_url":null,"mobile":null,"phone":null,"position":null,"twitter":null,"type":"Contact","updated_at":"2014/05/19
        08:55:07 -0400","user_id":2,"viewed_at":null,"website":null,"work_address_1":null,"work_address_2":null,"work_city":null,"work_country":null,"work_postal_code":null,"work_state":null,"company_name":"Cormier,
        Rath and Rohan","full_name":"Pete Upton","predefined_contacts_tag_ids":[],"deal_ids":[],"image_thumb_url":"/images/thumb/missing.png","image_mobile_url":"/images/mobile/missing.png","predefined_contacts_tags":[],"deals":[],"lead_source":{"id":2,"name":"Cold
        Call"},"company":{"id":6,"name":"Cormier, Rath and Rohan"},"user":{"id":2,"first_name":"Maggie","last_name":"Zemlak"},"lead_status":null,"custom_fields":{}}],"pagination":{"page":2,"page_var":"page","per_page":3,"pages":10,"total":27}}'
    http_version: 
  recorded_at: Mon, 19 May 2014 16:28:06 GMT
recorded_with: VCR 2.3.0
